{
    "KPlugin": {
        "Description": "Command line access",
        "Description[ar]": "الوصول إلى سطر الأوامر",
        "Description[ast]": "Accesu a la llinia de comandos",
        "Description[az]": "Əmr sətrinə giriş",
        "Description[bg]": "Достъп до команден ред",
        "Description[ca@valencia]": "Accés a la línia d'ordres",
        "Description[ca]": "Accés a la línia d'ordres",
        "Description[cs]": "Přístup k příkazové řádce",
        "Description[de]": "Zugriff auf die Befehlszeile",
        "Description[en_GB]": "Command line access",
        "Description[eo]": "Komandlinia aliro",
        "Description[es]": "Acceso a la línea de órdenes",
        "Description[eu]": "Komando-lerrora sarbidea",
        "Description[fi]": "Komentorivin käyttö",
        "Description[fr]": "Accès par ligne de commandes",
        "Description[gl]": "Acceso á liña de ordes.",
        "Description[he]": "גישה לשורת הפקודה",
        "Description[ia]": "Accesso a linea de commando",
        "Description[it]": "Accesso alla riga di comando",
        "Description[ka]": "ბრძანების სტრიქონთან წვდომა",
        "Description[ko]": "명령행 접근",
        "Description[nl]": "Toegang tot de opdrachtregel",
        "Description[nn]": "Kommandolinjetilgang",
        "Description[pa]": "ਕਮਾਂਡ ਲਾਈਨ ਪਹੁੰਚ",
        "Description[pl]": "Dostęp do wiersza poleceń",
        "Description[pt]": "Acesso à linha de comandos",
        "Description[pt_BR]": "Acesso à linha de comandos",
        "Description[ru]": "Доступ к командной строке",
        "Description[sk]": "Prístup na príkazový riadok",
        "Description[sl]": "Dostop do ukazne vrstice",
        "Description[sv]": "Åtkomst till kommandorad",
        "Description[ta]": "கட்டளை வரியை அணுக உதவும்",
        "Description[tr]": "Komut satırı erişimi",
        "Description[uk]": "Доступ до командного рядка",
        "Description[x-test]": "xxCommand line accessxx",
        "Description[zh_CN]": "命令行访问",
        "Description[zh_TW]": "指令列",
        "Icon": "utilities-terminal",
        "Name": "Terminal Emulator",
        "Name[ar]": "محاكي الطرفية",
        "Name[az]": "Terminal emulyatoru",
        "Name[bg]": "Терминален емулатор",
        "Name[ca@valencia]": "Emulador de terminal",
        "Name[ca]": "Emulador de terminal",
        "Name[cs]": "Emulátor terminálu",
        "Name[de]": "Terminal-Emulator",
        "Name[en_GB]": "Terminal Emulator",
        "Name[eo]": "Terminal-Imitilo",
        "Name[es]": "Emulador de terminal",
        "Name[eu]": "Terminal emulatzailea",
        "Name[fi]": "Pääte-emulaattori",
        "Name[fr]": "Émulateur de terminal",
        "Name[gl]": "Emulador de terminal",
        "Name[he]": "מדמה מסוף",
        "Name[ia]": "Emulator de terminal",
        "Name[it]": "Emulatore di terminale",
        "Name[ka]": "ტერმინალის ემულატორი",
        "Name[ko]": "터미널 에뮬레이터",
        "Name[nl]": "Terminalprogramma",
        "Name[nn]": "Terminalemulator",
        "Name[pa]": "ਟਰਮੀਨਲ ਈਮੂਲੇਟਰ",
        "Name[pl]": "Emulator terminala",
        "Name[pt]": "Emulador de Terminal",
        "Name[pt_BR]": "Emulador de terminal",
        "Name[ru]": "Эмулятор терминала",
        "Name[sk]": "Emulátor terminálu",
        "Name[sl]": "Emulator terminala",
        "Name[sv]": "Terminalemulator",
        "Name[ta]": "முனைய செயலி",
        "Name[tr]": "Uçbirim Öykünücüsü",
        "Name[uk]": "Емулятор термінала",
        "Name[x-test]": "xxTerminal Emulatorxx",
        "Name[zh_CN]": "终端模拟器",
        "Name[zh_TW]": "終端機模擬器",
        "ServiceTypes": [
            "KParts/ReadOnlyPart",
            "Browser/View",
            "inode/directory",
            "TerminalEmulator"
        ]
    },
    "X-KDE-AuthorizeAction": "shell_access",
    "X-KDE-BrowserView-AllowAsDefault": false,
    "X-KDE-BrowserView-FollowActive": true,
    "X-KDE-BrowserView-HideFromMenus": true,
    "X-KDE-BrowserView-Toggable": true,
    "X-KDE-BrowserView-ToggableView-Orientation": "horizontal"
}
